Code part 2 TF-IDF of first 5 authors
…
many<- phi %>%
  distinct(author)

many

## # A tibble: 36 x 1
##    author     
##    <chr>      
##  1 Plato      
##  2 Aristotle  
##  3 Locke      
##  4 Hume       
##  5 Berkeley   
##  6 Spinoza    
##  7 Leibniz    
##  8 Descartes  
##  9 Malebranche
## 10 Russell    
## # ... with 26 more rows
…
